{
    "family": "backend-flask",
    "executionRoleArn": "arn:aws:iam::697374993437:role/CruddurServiceExecutionRole",
    "taskRoleArn": "arn:aws:iam::697374993437:role/CruddurTaskRole",
    "networkMode": "awsvpc",
    "cpu": "256",
    "memory": "512",
    "requiresCompatibilities": [
        "FARGATE"
    ],
    "containerDefinitions": [
        {
            "name": "xray",
            "image": "public.ecr.aws/xray/aws-xray-daemon" ,
            "essential": true,
            "user": "1337",
            "portMappings": [
              {
                "name": "xray",
                "containerPort": 2000,
                "protocol": "udp"
              }
            ]
          },
        {
            "name": "backend-flask",
            "image": "697374993437.dkr.ecr.eu-west-3.amazonaws.com/backend-flask",
            "essential": true,
            "healthCheck": {
                "command": [
                    "CMD-SHELL",
                    "python /backend-flask/bin/health-check"
                ],
                "interval": 30,
                "timeout": 15,
                "retries": 3,
                "startPeriod": 60
            },
            "portMappings": [
                {
                    "name": "backend-flask",
                    "containerPort": 4567,
                    "protocol": "tcp",
                    "appProtocol": "http"
                }
            ],
            "logConfiguration": {
                "logDriver": "awslogs",
                "options": {
                    "awslogs-group": "cruddur",
                    "awslogs-region": "eu-west-3",
                    "awslogs-stream-prefix": "backend-flask"
                }
            },
            "environment": [
                {
                    "name": "OTEL_SERVICE_NAME",
                    "value": "backend-flask"
                },
                {
                    "name": "OTEL_EXPORTER_OTLP_ENDPOINT",
                    "value": "https://api.honeycomb.io"
                },
                {
                    "name": "AWS_COGNITO_USER_POOL_ID",
                    "value": "eu-west-3_QwrIRYWS3"
                },
                {
                    "name": "AWS_COGNITO_USER_POOL_CLIENT_ID",
                    "value": "4uun38bmepqfb4vt3j9s9buidl"
                },
                {
                    "name": "FRONTEND_URL",
                    "value": "https://shopili.net"
                },
                {
                    "name": "BACKEND_URL",
                    "value": "https://api.shopili.net"
                },
                {
                    "name": "AWS_DEFAULT_REGION",
                    "value": "eu-west-3"
                }
            ],
            "secrets": [
                {
                    "name": "AWS_ACCESS_KEY_ID",
                    "valueFrom": "arn:aws:ssm:eu-west-3:697374993437:parameter/cruddur/backend-flask/AWS_ACCESS_KEY_ID"
                },
                {
                    "name": "AWS_SECRET_ACCESS_KEY",
                    "valueFrom": "arn:aws:ssm:eu-west-3:697374993437:parameter/cruddur/backend-flask/AWS_SECRET_ACCESS_KEY"
                },
                {
                    "name": "CONNECTION_URL",
                    "valueFrom": "arn:aws:ssm:eu-west-3:697374993437:parameter/cruddur/backend-flask/CONNECTION_URL"
                },
                {
                    "name": "ROLLBAR_ACCESS_TOKEN",
                    "valueFrom": "arn:aws:ssm:eu-west-3:697374993437:parameter/cruddur/backend-flask/ROLLBAR_ACCESS_TOKEN"
                },
                {
                    "name": "OTEL_EXPORTER_OTLP_HEADERS",
                    "valueFrom": "arn:aws:ssm:eu-west-3:697374993437:parameter/cruddur/backend-flask/OTEL_EXPORTER_OTLP_HEADERS"
                }
            ]
        }
    ]
}